<?xml version="1.0" encoding="UTF-8" standalone="no"?>
<!-- Created with Inkscape (http://www.inkscape.org/) -->

<svg
   version="1.1"
   id="svg7106"
   width="274.54074"
   height="252.59834"
   xmlns:inkscape="http://www.inkscape.org/namespaces/inkscape"
   xmlns:sodipodi="http://sodipodi.sourceforge.net/DTD/sodipodi-0.dtd"
   xmlns="http://www.w3.org/2000/svg"
   xmlns:svg="http://www.w3.org/2000/svg">
  <defs
     id="defs7110" />
  <g
     id="g7112"
     transform="matrix(3.7795276,0,0,3.7795276,-924.10657,-170.6664)">
    <rect
       style="fill:#c3f0ca;fill-opacity:1;stroke:#ff8ba7;stroke-width:5;stroke-miterlimit:4;stroke-dasharray:none;stroke-opacity:1;paint-order:fill markers stroke;stop-color:#000000"
       id="rect38744-1"
       width="71.424316"
       height="51.810452"
       x="249.37393"
       y="101.78637"
       transform="matrix(0.98504506,-0.17229692,0,1,0,0)" />
    <text
       xml:space="preserve"
       style="font-style:normal;font-weight:normal;font-size:10.5833px;line-height:0.85;font-family:sans-serif;letter-spacing:-0.264583px;fill:#ff8ba7;fill-opacity:1;stroke:none;stroke-width:0.264583;stroke-opacity:1"
       x="280.22931"
       y="148.83739"
       id="text1222-0"
       transform="skewY(-11.160236)"><tspan
         sodipodi:role="line"
         style="font-style:normal;font-variant:normal;font-weight:normal;font-stretch:normal;font-size:35.2778px;font-family:Binjay;-inkscape-font-specification:'Binjay, Normal';font-variant-ligatures:normal;font-variant-caps:normal;font-variant-numeric:normal;font-variant-east-asian:normal;text-align:center;text-anchor:middle;fill:#ff8ba7;fill-opacity:1;stroke:none;stroke-width:0.264583;stroke-opacity:1"
         x="280.09702"
         y="148.83739"
         id="tspan9704-8">ETM</tspan></text>
  </g>
</svg>
